{
    "data": [
        {
            "id": 133,
            "name": "Watermelon smoothie",
            "description": "Watermelon, peeled and chopped banana, peeled and sliced cold apple juice.",
            "image": "https://restlist.app/api_dev/storage/product/images/u2PaxHSxWjDFKULfaaNMKaKZcaOvtuFiDYHop5cP.jpg",
            "slider_image": null,
            "size": "Small Cup",
            "expected_time": 5,
            "price": 100,
            "discount": 50,
            "sort": 0,
            "is_available": 1,
            "category_id": 192,
            "restaurant_id": 18,
            "offer": null,
            "offer_id": null
        },
        {
            "id": 136,
            "name": "Coffee",
            "description": "Instant coffee, Free sugar\r\nand milk",
            "image": "https://restlist.app/api_dev/storage/product/images/MSPynGwgqz9yZgs29BS4JqeRjPNeuoQKarZVxFqo.jpg",
            "slider_image": null,
            "size": "Beaker",
            "expected_time": 10,
            "price": 10,
            "discount": 8,
            "sort": 0,
            "is_available": 1,
            "category_id": 195,
            "restaurant_id": 18,
            "offer": null,
            "offer_id": null
        },
        {
            "id": 732,
            "name": "melon",
            "description": "melon",
            "image": "https://restlist.app/api_dev/storage/product/images/AkNZVkRpYVuzaTNVpvqzBP5WlEexqCdWhOkee9sF.jpg",
            "slider_image": null,
            "size": "",
            "expected_time": null,
            "price": 2,
            "discount": null,
            "sort": 0,
            "is_available": 1,
            "category_id": 189,
            "restaurant_id": 18,
            "offer": null,
            "offer_id": null
        },
        {
            "id": 13598,
            "name": "test",
            "description": "ere",
            "image": null,
            "slider_image": null,
            "size": "2",
            "expected_time": 23,
            "price": 23,
            "discount": null,
            "sort": 1,
            "is_available": 1,
            "category_id": 275,
            "restaurant_id": 18,
            "offer": null,
            "offer_id": null
        },
        {
            "id": 13599,
            "name": "a",
            "description": "a",
            "image": null,
            "slider_image": null,
            "size": "a",
            "expected_time": 2,
            "price": 1,
            "discount": 3,
            "sort": 1,
            "is_available": 1,
            "category_id": 275,
            "restaurant_id": 18,
            "offer": null,
            "offer_id": null
        },
        {
            "id": 13600,
            "name": "Salad",
            "description": "Green Salad",
            "image": "https://restlist.app/api_dev/storage/product/images/FCSu5jOiNAa8m1HMIrjCY8VcN9K2xLSCU6UCA0pL.jpg",
            "slider_image": "https://restlist.app/api_dev/storage/product/images/LTx9eQwflcmvvsYcZmMpfZhMAsFokPgp51rPM3eN.png",
            "size": "2",
            "expected_time": 10,
            "price": 4,
            "discount": null,
            "sort": 1,
            "is_available": 1,
            "category_id": 198,
            "restaurant_id": 18,
            "offer": null,
            "offer_id": null
        },
        {
            "id": 13601,
            "name": "test",
            "description": "test des",
            "image": null,
            "slider_image": null,
            "size": "1",
            "expected_time": 12,
            "price": 100,
            "discount": 50,
            "sort": 1,
            "is_available": 0,
            "category_id": 197,
            "restaurant_id": 18,
            "offer": null,
            "offer_id": null
        },
        {
            "id": 1375,
            "name": "a",
            "description": "a",
            "image": null,
            "slider_image": null,
            "size": null,
            "expected_time": null,
            "price": 3,
            "discount": null,
            "sort": 1,
            "is_available": 1,
            "category_id": 611,
            "restaurant_id": 18,
            "offer": null,
            "offer_id": null
        },
        {
            "id": 1376,
            "name": "a",
            "description": "a",
            "image": null,
            "slider_image": null,
            "size": null,
            "expected_time": null,
            "price": 2,
            "discount": null,
            "sort": 1,
            "is_available": 1,
            "category_id": 612,
            "restaurant_id": 18,
            "offer": null,
            "offer_id": null
        },
        {
            "id": 1377,
            "name": "a",
            "description": "a",
            "image": null,
            "slider_image": null,
            "size": null,
            "expected_time": null,
            "price": 2,
            "discount": null,
            "sort": 1,
            "is_available": 1,
            "category_id": 613,
            "restaurant_id": 18,
            "offer": null,
            "offer_id": null
        }
    ],
    "status": true,
    "message": null,
    "code": 200,
    "paginate": {
        "currentPage": 1,
        "from": 1,
        "to": 10,
        "total": 57,
        "total_pages": 6,
        "per_page": 10
    },
    "whatsapp_message": null
}